<?xml version="1.0" encoding="UTF-8"?>
<testsuite xmlns:xsi="http://www.w3.org/2001/XMLSchema-instance" xsi:noNamespaceSchemaLocation="https://maven.apache.org/surefire/maven-surefire-plugin/xsd/surefire-test-report.xsd" name="fr.esir.mdi.ci.tpmaven.AppTest" time="0.618" tests="4" errors="3" skipped="0" failures="0">
  <properties>
    <property name="java.specification.version" value="14"/>
    <property name="sun.jnu.encoding" value="UTF-8"/>
    <property name="java.class.path" value="/home/echerfa/Apps/tpmaven/target/test-classes:/home/echerfa/Apps/tpmaven/target/classes:/root/.m2/repository/junit/junit/4.11/junit-4.11.jar:/root/.m2/repository/org/hamcrest/hamcrest-core/1.3/hamcrest-core-1.3.jar:/root/.m2/repository/com/itextpdf/itextpdf/5.5.13.1/itextpdf-5.5.13.1.jar:"/>
    <property name="java.vm.vendor" value="Oracle Corporation"/>
    <property name="sun.arch.data.model" value="64"/>
    <property name="java.vendor.url" value="https://java.oracle.com/"/>
    <property name="os.name" value="Linux"/>
    <property name="java.vm.specification.version" value="14"/>
    <property name="sun.java.launcher" value="SUN_STANDARD"/>
    <property name="user.country" value="FR"/>
    <property name="sun.boot.library.path" value="/usr/lib/jvm/jdk-14.0.2/lib"/>
    <property name="sun.java.command" value="/home/echerfa/Apps/tpmaven/target/surefire/surefirebooter15430473210262872553.jar /home/echerfa/Apps/tpmaven/target/surefire 2022-01-25T16-51-43_521-jvmRun1 surefire991554190110707200tmp surefire_04155668955787201023tmp"/>
    <property name="jdk.debug" value="release"/>
    <property name="surefire.test.class.path" value="/home/echerfa/Apps/tpmaven/target/test-classes:/home/echerfa/Apps/tpmaven/target/classes:/root/.m2/repository/junit/junit/4.11/junit-4.11.jar:/root/.m2/repository/org/hamcrest/hamcrest-core/1.3/hamcrest-core-1.3.jar:/root/.m2/repository/com/itextpdf/itextpdf/5.5.13.1/itextpdf-5.5.13.1.jar:"/>
    <property name="sun.cpu.endian" value="little"/>
    <property name="user.home" value="/root"/>
    <property name="user.language" value="fr"/>
    <property name="java.specification.vendor" value="Oracle Corporation"/>
    <property name="java.version.date" value="2020-07-14"/>
    <property name="java.home" value="/usr/lib/jvm/jdk-14.0.2"/>
    <property name="file.separator" value="/"/>
    <property name="basedir" value="/home/echerfa/Apps/tpmaven"/>
    <property name="java.vm.compressedOopsMode" value="Zero based"/>
    <property name="line.separator" value="&#10;"/>
    <property name="java.vm.specification.vendor" value="Oracle Corporation"/>
    <property name="java.specification.name" value="Java Platform API Specification"/>
    <property name="surefire.real.class.path" value="/home/echerfa/Apps/tpmaven/target/surefire/surefirebooter15430473210262872553.jar"/>
    <property name="sun.management.compiler" value="HotSpot 64-Bit Tiered Compilers"/>
    <property name="java.runtime.version" value="14.0.2+12-46"/>
    <property name="user.name" value="root"/>
    <property name="path.separator" value=":"/>
    <property name="os.version" value="5.13.0-23-generic"/>
    <property name="java.runtime.name" value="Java(TM) SE Runtime Environment"/>
    <property name="file.encoding" value="UTF-8"/>
    <property name="java.vm.name" value="Java HotSpot(TM) 64-Bit Server VM"/>
    <property name="localRepository" value="/root/.m2/repository"/>
    <property name="java.vendor.url.bug" value="https://bugreport.java.com/bugreport/"/>
    <property name="java.io.tmpdir" value="/tmp"/>
    <property name="java.version" value="14.0.2"/>
    <property name="user.dir" value="/home/echerfa/Apps/tpmaven"/>
    <property name="os.arch" value="amd64"/>
    <property name="java.vm.specification.name" value="Java Virtual Machine Specification"/>
    <property name="java.library.path" value="/usr/java/packages/lib:/usr/lib64:/lib64:/lib:/usr/lib"/>
    <property name="java.vm.info" value="mixed mode, sharing"/>
    <property name="java.vendor" value="Oracle Corporation"/>
    <property name="java.vm.version" value="14.0.2+12-46"/>
    <property name="sun.io.unicode.encoding" value="UnicodeLittle"/>
    <property name="java.class.version" value="58.0"/>
  </properties>
  <testcase name="testAddMetaData" classname="fr.esir.mdi.ci.tpmaven.AppTest" time="0.237">
    <error type="java.lang.NullPointerException">java.lang.NullPointerException
	at fr.esir.mdi.ci.tpmaven.AppTest.testAddMetaData(AppTest.java:44)
</error>
    <system-out><![CDATA[null

]]></system-out>
  </testcase>
  <testcase name="shouldAnswerWithTrue" classname="fr.esir.mdi.ci.tpmaven.AppTest" time="0"/>
  <testcase name="testAddTitlePage" classname="fr.esir.mdi.ci.tpmaven.AppTest" time="0.143">
    <error message="The document is not open yet; you can only add Meta information." type="com.itextpdf.text.DocumentException">com.itextpdf.text.DocumentException: The document is not open yet; you can only add Meta information.
	at fr.esir.mdi.ci.tpmaven.AppTest.testAddTitlePage(AppTest.java:52)
</error>
  </testcase>
  <testcase name="testaddContent" classname="fr.esir.mdi.ci.tpmaven.AppTest" time="0.121">
    <error message="The document is not open yet; you can only add Meta information." type="com.itextpdf.text.DocumentException">com.itextpdf.text.DocumentException: The document is not open yet; you can only add Meta information.
	at fr.esir.mdi.ci.tpmaven.AppTest.testaddContent(AppTest.java:30)
</error>
  </testcase>
</testsuite>